<?xml version="1.0" encoding="utf-8"?>
<!-- Generator: Adobe Illustrator 21.1.0, SVG Export Plug-In . SVG Version: 6.00 Build 0)  -->
<svg version="1.1" id="Layer_1" xmlns="http://www.w3.org/2000/svg" xmlns:xlink="http://www.w3.org/1999/xlink" x="0px" y="0px"
	 viewBox="0 0 195.3 57.9" style="enable-background:new 0 0 195.3 57.9;" xml:space="preserve">
<style type="text/css">
	.st0{fill:#FFFFFF;}
</style>
<title>iconos</title>
<g id="g62">
	<path id="path4" d="M193.9,51c0,3.1-2.5,5.5-5.5,5.5c0,0,0,0,0,0H6.8c-3.1,0-5.5-2.5-5.6-5.5V6.8c0-3.1,2.5-5.5,5.6-5.6h181.5
		c3.1,0,5.6,2.5,5.6,5.5c0,0,0,0,0,0V51z"/>
	<g id="g12">
		<g id="g10">
			<path id="path6" class="st0" d="M43.6,28.6c0.1-2.9,1.6-5.5,4-7c-1.6-2.2-4.1-3.6-6.8-3.6c-2.8-0.3-5.6,1.7-7,1.7S30,18,27.6,18
				c-3.2,0.1-6,1.9-7.6,4.6c-3.3,5.7-0.8,14,2.3,18.6c1.6,2.2,3.4,4.8,5.8,4.7s3.2-1.5,6.1-1.5s3.6,1.5,6.1,1.4s4.1-2.3,5.6-4.5
				c1.1-1.6,2-3.4,2.6-5.2C45.5,34.8,43.5,31.9,43.6,28.6L43.6,28.6z"/>
			<path id="path8" class="st0" d="M39,14.9c1.4-1.7,2-3.8,1.8-5.9c-2.1,0.2-4,1.2-5.4,2.8c-1.4,1.6-2.1,3.6-1.9,5.7
				C35.6,17.5,37.7,16.6,39,14.9z"/>
		</g>
	</g>
	<g id="g30">
		<path id="path14" class="st0" d="M77.6,45.6h-3.3l-1.8-5.7h-6.3l-1.7,5.7h-3.2l6.2-19.2h3.8L77.6,45.6z M72,37.6l-1.6-5
			c-0.2-0.5-0.5-1.7-1-3.6h-0.1c-0.2,0.8-0.5,2-0.9,3.6l-1.6,5H72z"/>
		<path id="path16" class="st0" d="M93.5,38.5c0.1,2-0.6,4.1-1.9,5.6c-1.1,1.2-2.6,1.9-4.3,1.8c-1.6,0.1-3.1-0.7-3.9-2h-0.1v7.3
			h-3.1v-15c0-1.5,0-3-0.1-4.6h2.7l0.2,2.2l0,0c1.7-2.5,5.1-3.2,7.6-1.6c0.4,0.3,0.8,0.6,1.2,1C93,34.7,93.6,36.6,93.5,38.5z
			 M90.4,38.6c0-1.2-0.3-2.3-0.9-3.3c-0.6-0.9-1.6-1.4-2.7-1.4c-0.8,0-1.5,0.3-2.1,0.8c-0.6,0.5-1.1,1.2-1.2,2
			c-0.1,0.3-0.1,0.6-0.1,0.9v2.3c0,0.9,0.3,1.9,0.9,2.6c0.6,0.7,1.5,1,2.4,1c1.1,0,2.1-0.5,2.7-1.3C90.1,41.1,90.5,39.8,90.4,38.6z"
			/>
		<path id="path18" class="st0" d="M109.5,38.5c0.1,2-0.6,4.1-1.9,5.6c-1.1,1.2-2.6,1.9-4.2,1.8c-1.6,0.1-3.1-0.6-3.9-2h-0.1v7.3
			h-3.1v-15c0-1.5,0-3-0.1-4.6h2.7l0.2,2.2h0.1c1.7-2.5,5.1-3.2,7.6-1.6c0.4,0.3,0.8,0.6,1.2,1C109,34.7,109.6,36.6,109.5,38.5
			L109.5,38.5z M106.4,38.6c0-1.2-0.3-2.3-0.9-3.3c-0.6-0.9-1.6-1.4-2.7-1.4c-0.8,0-1.5,0.3-2.1,0.8c-0.6,0.5-1,1.2-1.2,2
			c-0.1,0.3-0.1,0.6-0.1,0.9v2.3c0,0.9,0.3,1.9,0.9,2.6c0.6,0.7,1.5,1,2.4,1c1.1,0,2.1-0.5,2.7-1.3
			C106.1,41.1,106.4,39.8,106.4,38.6L106.4,38.6z"/>
		<path id="path20" class="st0" d="M127.4,40.2c0.1,1.5-0.6,3-1.7,4c-1.5,1.2-3.3,1.8-5.2,1.7c-1.7,0.1-3.5-0.3-5-1.2l0.7-2.6
			c1.3,0.8,2.9,1.2,4.5,1.2c1,0.1,1.9-0.2,2.7-0.8c0.7-0.5,1-1.3,1-2.1c0-0.7-0.3-1.5-0.8-2c-0.8-0.7-1.7-1.1-2.7-1.4
			c-3.4-1.3-5-3.1-5-5.5c0-1.5,0.6-2.9,1.8-3.9c1.3-1.1,3-1.6,4.7-1.6c1.5,0,3,0.3,4.4,0.9l-0.8,2.5c-1.1-0.6-2.4-0.9-3.7-0.9
			c-0.9-0.1-1.8,0.2-2.5,0.8c-0.5,0.4-0.8,1.1-0.8,1.8c0,0.7,0.3,1.4,0.9,1.9c0.8,0.6,1.8,1.1,2.8,1.5c1.4,0.5,2.6,1.3,3.7,2.3
			C127,37.7,127.4,38.9,127.4,40.2L127.4,40.2z"/>
		<path id="path22" class="st0" d="M137.6,34h-3.4v6.7c0,1.7,0.6,2.6,1.8,2.6c0.5,0,0.9,0,1.4-0.2l0.1,2.3c-0.8,0.2-1.6,0.4-2.4,0.3
			c-1.1,0.1-2.1-0.3-2.9-1.1c-0.8-1.1-1.1-2.4-1-3.7v-7h-2v-2.3h2v-2.5l3-0.9v3.5h3.4V34z"/>
		<path id="path24" class="st0" d="M152.9,38.5c0.1,1.9-0.6,3.8-1.8,5.2c-1.3,1.4-3.1,2.2-5.1,2.1c-1.8,0.1-3.6-0.6-4.9-2
			c-1.2-1.4-1.9-3.2-1.8-5.1c-0.1-1.9,0.6-3.8,1.9-5.3c1.3-1.4,3.1-2.1,5-2.1c1.9-0.1,3.6,0.6,4.9,2
			C152.3,34.8,152.9,36.7,152.9,38.5L152.9,38.5z M149.7,38.6c0-1.2-0.3-2.3-0.8-3.3c-0.5-1-1.6-1.7-2.8-1.7c-1.2,0-2.3,0.6-2.8,1.7
			c-0.6,1-0.9,2.2-0.8,3.4c0,1.2,0.3,2.3,0.8,3.3c0.8,1.5,2.7,2.1,4.3,1.3c0.6-0.3,1-0.8,1.3-1.3C149.4,41,149.7,39.8,149.7,38.6z"
			/>
		<path id="path26" class="st0" d="M162.9,34.4c-0.3-0.1-0.7-0.1-1-0.1c-1,0-1.9,0.4-2.5,1.2c-0.5,0.8-0.8,1.8-0.8,2.7v7.3h-3.1
			v-9.5c0-1.6,0-3-0.1-4.4h2.7l0.1,2.7h0.1c0.3-0.9,0.8-1.6,1.6-2.2c0.6-0.5,1.4-0.7,2.2-0.7c0.3,0,0.5,0,0.8,0L162.9,34.4z"/>
		<path id="path28" class="st0" d="M176.7,38c0,0.5,0,0.9-0.1,1.4h-9.3c0,1.2,0.5,2.4,1.4,3.2c0.9,0.7,1.9,1,3,1
			c1.3,0,2.6-0.2,3.8-0.7l0.5,2.1c-1.5,0.6-3.1,0.9-4.6,0.9c-1.9,0.1-3.7-0.6-5.1-1.9c-1.3-1.4-1.9-3.2-1.8-5.1
			c-0.1-1.9,0.5-3.7,1.7-5.2c1.2-1.5,3-2.3,4.9-2.2c1.8-0.1,3.5,0.7,4.6,2.2C176.3,34.9,176.8,36.5,176.7,38z M173.8,37.2
			c0-0.8-0.2-1.7-0.6-2.4c-0.5-0.8-1.5-1.3-2.5-1.3c-1,0-1.9,0.5-2.4,1.3c-0.5,0.7-0.8,1.5-0.9,2.4L173.8,37.2L173.8,37.2z"/>
	</g>
	<g id="g60">
		<g id="g58">
			<path id="path32" class="st0" d="M71,14.5c0.1,1.4-0.5,2.9-1.5,3.8c-1.1,0.9-2.6,1.3-4,1.2c-0.7,0-1.5,0-2.2-0.1v-9.3
				c0.9-0.1,1.7-0.2,2.6-0.2c1.3-0.1,2.6,0.3,3.7,1.1C70.5,11.9,71.1,13.2,71,14.5z M69.4,14.5c0-0.9-0.3-1.8-0.9-2.5
				c-0.7-0.6-1.6-0.9-2.6-0.9c-0.4,0-0.8,0-1.2,0.1v7.1c0.3,0,0.7,0,1,0c1,0.1,2-0.3,2.7-1C69.1,16.5,69.4,15.5,69.4,14.5L69.4,14.5
				z"/>
			<path id="path34" class="st0" d="M79.4,16c0,0.9-0.3,1.9-0.9,2.6c-0.6,0.7-1.6,1-2.5,1c-0.9,0-1.8-0.3-2.4-1
				c-0.6-0.7-0.9-1.6-0.9-2.5c0-1,0.3-1.9,0.9-2.6c0.6-0.7,1.5-1,2.5-1c0.9,0,1.8,0.3,2.4,1C79.2,14.2,79.5,15.1,79.4,16z M77.9,16
				c0-0.6-0.1-1.1-0.4-1.6c-0.3-0.5-0.8-0.8-1.4-0.8c-0.6,0-1.1,0.3-1.4,0.8c-0.3,0.5-0.4,1.1-0.4,1.6c0,0.6,0.1,1.1,0.4,1.6
				c0.4,0.8,1.3,1,2.1,0.6c0.3-0.1,0.5-0.4,0.6-0.6C77.7,17.1,77.9,16.6,77.9,16z"/>
			<path id="path36" class="st0" d="M90.8,12.6l-2.1,6.8h-1.4l-0.9-3c-0.2-0.7-0.4-1.5-0.6-2.2l0,0c-0.1,0.7-0.3,1.5-0.6,2.2l-0.9,3
				h-1.4l-2-6.8h1.6l0.8,3.2c0.2,0.8,0.3,1.5,0.5,2.2l0,0c0.1-0.6,0.3-1.3,0.6-2.2l1-3.3h1.2l0.9,3.2c0.2,0.8,0.4,1.5,0.5,2.2l0,0
				c0.1-0.8,0.3-1.5,0.5-2.2l0.8-3.2L90.8,12.6z"/>
			<path id="path38" class="st0" d="M98.7,19.4h-1.5v-3.9c0-1.2-0.5-1.8-1.4-1.8c-0.4,0-0.8,0.2-1.1,0.5c-0.3,0.3-0.4,0.7-0.4,1.2v4
				h-1.5v-4.8c0-0.6,0-1.2,0-2H94l0.1,1.1l0,0c0.2-0.3,0.5-0.6,0.8-0.8c0.4-0.3,0.9-0.4,1.4-0.4c0.6,0,1.2,0.2,1.6,0.6
				c0.6,0.6,0.8,1.4,0.8,2.3L98.7,19.4z"/>
			<path id="path40" class="st0" d="M102.8,19.4h-1.5v-10h1.5V19.4z"/>
			<path id="path42" class="st0" d="M111.8,16c0,0.9-0.3,1.9-0.9,2.6c-0.6,0.7-1.6,1-2.5,1c-0.9,0-1.8-0.3-2.4-1
				c-0.6-0.7-0.9-1.6-0.9-2.5c0-1,0.3-1.9,0.9-2.6c0.6-0.7,1.5-1,2.5-1c0.9,0,1.8,0.3,2.4,1C111.5,14.2,111.8,15.1,111.8,16z
				 M110.2,16c0-0.6-0.1-1.1-0.4-1.6c-0.3-0.5-0.8-0.8-1.4-0.8c-0.6,0-1.1,0.3-1.4,0.8c-0.3,0.5-0.4,1.1-0.4,1.6
				c0,0.6,0.1,1.1,0.4,1.6c0.4,0.8,1.3,1,2.1,0.6c0.3-0.1,0.5-0.4,0.6-0.6C110.1,17.1,110.2,16.6,110.2,16L110.2,16z"/>
			<path id="path44" class="st0" d="M119.1,19.4h-1.4l-0.1-0.8l0,0c-0.5,0.6-1.2,1-2,0.9c-0.6,0-1.2-0.2-1.6-0.6
				c-0.3-0.4-0.5-0.9-0.5-1.4c0-0.8,0.3-1.5,1-1.9c0.9-0.5,1.9-0.7,2.9-0.6v-0.2c0-0.9-0.5-1.4-1.4-1.4c-0.6,0-1.3,0.2-1.8,0.5
				l-0.3-1c0.7-0.4,1.5-0.6,2.3-0.6c1.8,0,2.7,0.9,2.7,2.8v2.5C118.9,18.4,118.9,18.9,119.1,19.4L119.1,19.4z M117.5,17.1V16
				c-1.7,0-2.5,0.4-2.5,1.4c0,0.3,0.1,0.6,0.3,0.8c0.2,0.2,0.5,0.3,0.7,0.3c0.3,0,0.7-0.1,0.9-0.3c0.3-0.2,0.5-0.5,0.5-0.8
				C117.5,17.2,117.5,17.1,117.5,17.1L117.5,17.1z"/>
			<path id="path46" class="st0" d="M127.7,19.4h-1.3l-0.1-1.1l0,0c-0.4,0.8-1.3,1.3-2.2,1.2c-0.8,0-1.5-0.4-2-1
				c-0.6-0.7-0.9-1.6-0.8-2.5c0-1,0.3-1.9,0.9-2.7c0.5-0.6,1.3-1,2.1-1c0.8-0.1,1.5,0.3,1.9,0.9l0,0V9.5h1.5v8.1
				C127.7,18.3,127.7,18.9,127.7,19.4L127.7,19.4z M126.1,16.6v-1.1c0-0.2,0-0.3,0-0.5c-0.1-0.4-0.3-0.7-0.6-0.9
				c-0.3-0.2-0.6-0.4-1-0.4c-0.5,0-1,0.2-1.3,0.7c-0.3,0.5-0.5,1.1-0.5,1.7c0,0.6,0.1,1.2,0.5,1.6c0.3,0.4,0.8,0.7,1.3,0.7
				c0.5,0,0.9-0.2,1.2-0.6C126,17.4,126.2,17,126.1,16.6z"/>
			<path id="path48" class="st0" d="M140.7,16c0,0.9-0.3,1.9-0.9,2.6c-0.6,0.7-1.6,1-2.5,1c-0.9,0-1.8-0.3-2.4-1
				c-0.6-0.7-0.9-1.6-0.9-2.5c0-1,0.3-1.9,0.9-2.6c0.6-0.7,1.5-1,2.5-1c0.9,0,1.8,0.3,2.4,1C140.4,14.2,140.7,15.1,140.7,16z
				 M139.1,16c0-0.6-0.1-1.1-0.4-1.6c-0.3-0.5-0.8-0.8-1.4-0.8c-0.6,0-1.1,0.3-1.4,0.8c-0.3,0.5-0.4,1.1-0.4,1.6
				c0,0.6,0.1,1.1,0.4,1.6c0.3,0.5,0.8,0.8,1.4,0.8c0.6,0,1.1-0.3,1.4-0.8C139,17.1,139.1,16.6,139.1,16L139.1,16z"/>
			<path id="path50" class="st0" d="M148.8,19.4h-1.5v-3.9c0-1.2-0.4-1.8-1.4-1.8c-0.4,0-0.8,0.2-1.1,0.5c-0.3,0.3-0.4,0.7-0.4,1.2
				v4h-1.5v-4.8c0-0.6,0-1.3-0.1-2h1.3l0.1,1.1l0,0c0.2-0.3,0.5-0.6,0.8-0.8c0.4-0.3,0.9-0.4,1.4-0.4c0.6,0,1.2,0.2,1.6,0.6
				c0.6,0.6,0.9,1.4,0.8,2.3L148.8,19.4z"/>
			<path id="path52" class="st0" d="M159,13.8h-1.7v3.3c0,0.8,0.3,1.3,0.9,1.3c0.2,0,0.5,0,0.7-0.1v1.1c-0.4,0.1-0.8,0.2-1.2,0.2
				c-0.5,0-1-0.2-1.4-0.5c-0.4-0.5-0.6-1.2-0.5-1.8v-3.4h-1v-1.1h1v-1.2l1.5-0.4v1.7h1.7V13.8z"/>
			<path id="path54" class="st0" d="M167.1,19.4h-1.5v-3.9c0-1.2-0.5-1.8-1.4-1.8c-0.7,0-1.3,0.4-1.4,1.1c0,0.2-0.1,0.4-0.1,0.6v4.1
				h-1.5v-10h1.5v4.1l0,0c0.4-0.7,1.2-1.1,2-1.1c0.6,0,1.1,0.2,1.6,0.6c0.6,0.6,0.8,1.5,0.8,2.3L167.1,19.4z"/>
			<path id="path56" class="st0" d="M175.3,15.7c0,0.2,0,0.5-0.1,0.7h-4.6c0,0.6,0.2,1.1,0.7,1.5c0.4,0.3,1,0.5,1.5,0.5
				c0.6,0,1.3-0.1,1.8-0.3l0.2,1c-0.7,0.3-1.5,0.4-2.3,0.4c-0.9,0.1-1.8-0.3-2.5-0.9c-0.6-0.7-1-1.6-0.9-2.5c0-0.9,0.3-1.8,0.9-2.6
				c0.6-0.7,1.5-1.1,2.4-1.1c0.9,0,1.7,0.4,2.2,1.1C175.2,14.2,175.4,14.9,175.3,15.7L175.3,15.7z M173.9,15.3
				c0-0.4-0.1-0.8-0.3-1.2c-0.3-0.4-0.7-0.7-1.2-0.6c-0.5,0-0.9,0.2-1.2,0.6c-0.3,0.3-0.4,0.8-0.4,1.2H173.9z"/>
		</g>
	</g>
</g>
</svg>
