<?xml version="1.0" encoding="utf-8"?>
<!-- Generator: Adobe Illustrator 21.1.0, SVG Export Plug-In . SVG Version: 6.00 Build 0)  -->
<svg version="1.1" id="Layer_1" xmlns="http://www.w3.org/2000/svg" xmlns:xlink="http://www.w3.org/1999/xlink" x="0px" y="0px"
	 viewBox="0 0 250 175" style="enable-background:new 0 0 250 175;" xml:space="preserve">
<style type="text/css">
	.st0{fill:#FFFFFF;}
</style>
<path id="XMLID_4_" class="st0" d="M45.7,99h52.2c5.9,0,10.6-4.7,10.6-10.6c0-5.9-4.7-10.6-10.6-10.6H45.7L59.4,64
	c4.2-4.2,4.2-10.9,0-15c-4.2-4.2-10.9-4.2-15,0L12.6,80.9c-0.2,0.2-0.5,0.5-0.7,0.8c-0.1,0.1-0.1,0.1-0.1,0.2
	c-0.1,0.2-0.4,0.4-0.5,0.6c-0.1,0.1-0.1,0.1-0.1,0.2c-0.1,0.2-0.3,0.4-0.4,0.7c0,0.1-0.1,0.1-0.1,0.1c-0.1,0.3-0.3,0.5-0.4,0.8
	c0,0,0,0.1-0.1,0.1c-0.1,0.3-0.2,0.6-0.3,0.8c0,0.1,0,0.1,0,0.1c-0.1,0.3-0.1,0.6-0.2,0.9c0,0.1,0,0.2-0.1,0.3
	c-0.1,0.3-0.1,0.5-0.1,0.8c0,0.3,0,0.6,0,1c0,0.4,0,0.7,0.1,1.1c0,0.3,0.1,0.5,0.1,0.8c0,0.1,0,0.2,0.1,0.3c0.1,0.3,0.1,0.6,0.2,0.9
	v0.1c0.1,0.3,0.2,0.6,0.3,0.8c0,0,0,0.1,0.1,0.1c0.1,0.3,0.2,0.6,0.4,0.8c0,0.1,0.1,0.1,0.1,0.1c0.1,0.2,0.3,0.5,0.4,0.7
	c0.1,0.1,0.1,0.1,0.1,0.2c0.1,0.2,0.3,0.4,0.5,0.6c0.1,0.1,0.1,0.1,0.1,0.2c0.2,0.3,0.4,0.5,0.7,0.8l31.8,31.8c2,2,4.8,3.1,7.5,3.1
	c2.7,0,5.4-1.1,7.5-3.1c4.2-4.2,4.2-10.9,0-15L45.7,99z"/>
<path id="XMLID_5_" class="st0" d="M231.4,88.3c0-47.8-38.9-86.7-86.7-86.7c-28.9,0-55.8,14.3-72,38.4c-3.3,4.9-2,11.4,2.9,14.7
	c4.9,3.3,11.4,2,14.7-2.9c12.2-18.2,32.6-29,54.4-29c36.1,0,65.5,29.4,65.5,65.5s-29.4,65.5-65.5,65.5c-21.8,0-42.1-10.8-54.4-28.9
	c-3.3-4.9-9.9-6.1-14.7-2.8c-4.9,3.3-6.1,9.9-2.8,14.7c16.2,24,43,38.2,71.9,38.2C192.6,175,231.4,136.1,231.4,88.3"/>
</svg>
